32
Lattice="7.7644182613879575 0.0 0.0 0.0 8.965577946626366 -3.1698104816580326 0.0 0.0 9.509431444974098" Properties=species:S:1:pos:R:3:momenta:R:3:forces:R:3:hirshfeld:R:1 energy=-272093.07422464 pbc="T T T"
Na      -0.34518623       2.31943117       6.31875941      -0.80284731       0.56867280      -0.57063460       1.26775801      -0.36938467       0.30288094       0.18061724
Cl       3.88029991       4.41528074      -1.65390158       0.43727746      -0.58293235      -0.24013513      -0.00491902       0.25526687       0.08174495      -0.21400156
Na       0.11584134       4.32326650       3.24186839       0.83865893      -1.61926289       0.50349931       0.00520083       0.37197083       0.06894381       0.18932776
Cl       3.87838978       6.65152017       4.82387849       0.10851374      -1.91533593       0.18824236       0.00033512       0.02959458      -0.28161313      -0.17605198
Na       1.81319571       5.81717034       6.33585903      -1.13755977       0.90454192       0.06885751       0.40096572      -0.58570916       0.21459799       0.19971123
Cl       5.61174754       7.87461177      -1.57653159      -1.05957754       0.24470131      -0.77375301       0.45274227      -0.22938279      -0.01719313      -0.17736930
Na       0.11140030       6.65557144       0.15735027       0.55570175      -0.17693141       0.24151789      -0.07628970       0.28319959      -0.24391056       0.20304568
Cl       3.97039948      -0.15770705       4.73070666       0.69289526      -0.52039997       1.22467210       0.46275512       1.28858208       0.74831510      -0.17378472
Na       2.15096940       7.99627792       3.03981668       0.50323910       1.47063838      -0.56633388      -0.74709170      -0.10362232       0.48326861       0.21083999
Cl       5.89396086       1.03598757       7.93331788      -0.61916107      -0.50746010      -0.63528547      -0.83468525       0.21877598      -0.30182638      -0.16350330
Na      -0.42662939      -0.10548842       0.01608158      -1.88534500      -1.05630848       0.27658459       1.27878070       0.09503290       0.31863781       0.20094136
Cl       3.68816187       2.42991440       1.53375883      -0.43918141       0.93622649      -0.05704822       0.76679541      -0.48254073       0.23649917      -0.22267235
Na       1.99621119       1.36121180       3.31127546       0.75612961       0.55469958      -0.69082602       0.17584454      -1.38526960      -1.49883773       0.17495562
Cl       5.86089171       3.34135383       4.73956252      -0.37184071       0.33178716      -0.41586233      -0.38566383       0.28492681      -0.42038814      -0.17329194
Na       4.04166532       2.32862617       6.27840134      -0.03320357       0.25878929       0.22533010      -0.58782018      -0.21734812       0.28670279       0.18824162
Cl      -0.06228221       4.47218158      -1.62626879       0.77863836      -0.15455004       0.47731216       0.83020709      -0.18317068       0.57462019      -0.17130453
Na       1.79925011       3.45320337       0.13881517      -0.81602883       0.15641210       0.22624944       0.22773715      -0.37289267      -0.71661908       0.17373050
Cl       6.00770760       5.50809084       1.55203253       1.86038975      -0.91009927      -0.28527661      -0.24291360       0.36060121       0.15216193      -0.20161335
Na       4.07231274       4.69614140       3.23889601       1.74415720       1.24605879       0.54806645      -0.14831225      -0.63663117      -0.33991797       0.19206799
Cl      -0.09895237       6.63440255       4.82183189      -0.74829969      -0.26654504      -0.31390981       0.09637149       0.18420946      -0.30465963      -0.18891443
Na       5.98770477       5.49392527       6.59711252      -0.51112823      -0.27328055       1.65812899      -1.04588062       0.58475834      -0.69586016       0.18119760
Cl       1.97982167       7.89968025      -1.55483769      -0.27195137       0.37643225       0.85202410      -0.85229463       0.13267207      -0.22531372      -0.19310452
Na       3.75365705       7.08479708       0.01286645      -1.18017663       1.76879550      -0.37102324       0.20202367      -1.66668163      -0.56612393       0.18302333
Cl       0.02088000       0.19165478       4.58287838       1.10459281       1.27378574      -1.12993103       0.17440229      -0.90619879       0.68177580      -0.19185067
Na       5.82369470       7.85039130       3.23182365       0.83965497      -0.56029893       0.56625923       0.30850967      -0.20143120      -0.25119089       0.20251629
Cl       1.88542938       1.16375490       7.89747643      -0.08348608       0.29009578      -0.66524265       0.01395432      -0.35703792      -0.02291466      -0.22693942
Na       3.80813571      -0.20883695      -0.18484052      -0.58828617      -0.24475871      -1.23815779      -0.28907417       0.87095494       0.45095082       0.18898650
Cl      -0.09066225       2.32771873       1.62856426      -0.45546037       1.56975744      -0.12200697       0.10654904      -0.42233296      -0.32234567      -0.18131424
Na       6.00813568       1.03536174       3.09280993       0.76242458       0.05255470      -0.79037776      -0.81818518       0.38846647      -0.11303394       0.19042293
Cl       1.95718554       3.05050076       4.81708117      -0.51331166      -2.00022511       1.83069440      -0.07121351       2.00083363       1.05178480      -0.20755401
Na       5.87467802       3.31536125      -0.04206035       0.33130810      -0.34071250      -0.19566482      -0.48563545       0.13866238       0.22362793       0.18499029
Cl       2.07469292       5.53413268       1.55759878       0.20326378      -0.87484797       0.17403067      -0.18095335       0.63112625       0.44523607      -0.18267747
